digraph lattice
{
   // top to bottom
   rankdir=TB;
   concentrate=true;
   edge [dir=back, arrowsize=0.75, color=black];

   // top and bottom concepts
   node [shape=box, peripheries=2, style=filled];
   8 9

   // inner concepts
   node [shape=box, peripheries=1, color=black, style=solid];

   // all concepts
   8 [label="[PhysicalTable0, PhysicalTable1, PhysicalTable2, PhysicalTable3, PhysicalTable4]\nx\n{}  (5)\n|\n{}"]; // top concept
   1 [label="[PhysicalTable1]\nx\n{LOGICALTABLE4}  (1)\n|\n{LOGICALTABLE4}"];
   5 [label="[PhysicalTable0, PhysicalTable2, PhysicalTable3]\nx\n{LOGICALTABLE3}  (3)\n|\n{LOGICALTABLE3}"];
   7 [label="[PhysicalTable2, PhysicalTable3, PhysicalTable4]\nx\n{LOGICALTABLE0}  (3)\n|\n{LOGICALTABLE0}"];
   4 [label="[PhysicalTable2, PhysicalTable3]\nx\n{LOGICALTABLE0, LOGICALTABLE3}  (2)\n|\n{LOGICALTABLE0, LOGICALTABLE3}"];
   6 [label="[PhysicalTable3, PhysicalTable4]\nx\n{LOGICALTABLE0, LOGICALTABLE1}  (2)\n|\n{LOGICALTABLE1}"];
   2 [label="[PhysicalTable3]\nx\n{LOGICALTABLE0, LOGICALTABLE1, LOGICALTABLE3}  (1)\n|\n{LOGICALTABLE1, LOGICALTABLE3}"];
   3 [label="[PhysicalTable4]\nx\n{LOGICALTABLE0, LOGICALTABLE1, LOGICALTABLE2, LOGICALTABLE5}  (1)\n|\n{LOGICALTABLE2}  #  {LOGICALTABLE5}"];
   9 [label="[]\nx\n{LOGICALTABLE0, LOGICALTABLE1, LOGICALTABLE2, LOGICALTABLE3, LOGICALTABLE4, LOGICALTABLE5}  (0)"]; // bottom concept

   // links between the concepts
   8 -> 5;
   8 -> 1;
   8 -> 7;
   1 -> 9;
   5 -> 4;
   7 -> 6;
   7 -> 4;
   4 -> 2;
   6 -> 3;
   6 -> 2;
   2 -> 9;
   3 -> 9;
}
